\relax 
\providecommand\hyper@newdestlabel[2]{}
\providecommand\HyperFirstAtBeginDocument{\AtBeginDocument}
\HyperFirstAtBeginDocument{\ifx\hyper@anchor\@undefined
\global\let\oldcontentsline\contentsline
\gdef\contentsline#1#2#3#4{\oldcontentsline{#1}{#2}{#3}}
\global\let\oldnewlabel\newlabel
\gdef\newlabel#1#2{\newlabelxx{#1}#2}
\gdef\newlabelxx#1#2#3#4#5#6{\oldnewlabel{#1}{{#2}{#3}}}
\AtEndDocument{\ifx\hyper@anchor\@undefined
\let\contentsline\oldcontentsline
\let\newlabel\oldnewlabel
\fi}
\fi}
\global\let\hyper@last\relax 
\gdef\HyperFirstAtBeginDocument#1{#1}
\providecommand\HyField@AuxAddToFields[1]{}
\providecommand\HyField@AuxAddToCoFields[2]{}
\providecommand \oddpage@label [2]{}
\@writefile{toc}{\contentsline {section}{\numberline {1}\href  {https://www.statisticshowto.com/goodness-of-fit-test/}{Goodness of Fit Tests}}{3}{section.1}\protected@file@percent }
\newlabel{goodness-of-fit-tests}{{1}{3}{\texorpdfstring {\href {https://www.statisticshowto.com/goodness-of-fit-test/}{Goodness of Fit Tests}}{Goodness of Fit Tests}}{section.1}{}}
\@writefile{toc}{\contentsline {subsection}{\numberline {1.1}\href  {https://www.statisticshowto.com/probability-and-statistics/chi-square/}{Chi-Squared Test}}{3}{subsection.1.1}\protected@file@percent }
\newlabel{chi-squared-test}{{1.1}{3}{\texorpdfstring {\href {https://www.statisticshowto.com/probability-and-statistics/chi-square/}{Chi-Squared Test}}{Chi-Squared Test}}{subsection.1.1}{}}
\gdef \@abspage@last{5}
